^C:\USERS\EVGENIY\SOURCE\REPOS\LEARNING\LESSON 8\MODULE16\MODULE16.CPP
C:\USERS\EVGENIY\SOURCE\REPOS\LEARNING\LESSON 8\MODULE16\X64\DEBUG\VC143.PDB
C:\USERS\EVGENIY\SOURCE\REPOS\LEARNING\LESSON 8\MODULE16\X64\DEBUG\VC143.IDB
C:\USERS\EVGENIY\SOURCE\REPOS\LEARNING\LESSON 8\MODULE16\X64\DEBUG\MODULE16.OBJ
