^C:\USERS\EVGENIY\SOURCE\REPOS\LEARNING\LESSON 8\MODULE16\X64\DEBUG\MODULE16.OBJ
C:\USERS\EVGENIY\SOURCE\REPOS\LEARNING\LESSON 8\MODULE16\X64\DEBUG\MODULE16.EXE
C:\USERS\EVGENIY\SOURCE\REPOS\LEARNING\LESSON 8\MODULE16\X64\DEBUG\MODULE16.ILK
C:\USERS\EVGENIY\SOURCE\REPOS\LEARNING\LESSON 8\MODULE16\X64\DEBUG\MODULE16.PDB
